%YAML 1.1
%TAG !u! tag:unity3d.com,2011:
--- !u!114 &11400000
MonoBehaviour:
  m_ObjectHideFlags: 0
  m_CorrespondingSourceObject: {fileID: 0}
  m_PrefabInstance: {fileID: 0}
  m_PrefabAsset: {fileID: 0}
  m_GameObject: {fileID: 0}
  m_Enabled: 1
  m_EditorHideFlags: 0
  m_Script: {fileID: 11500000, guid: ee001c9e6d47a614db4b82e1b2199ebe, type: 3}
  m_Name: Post Effects
  m_EditorClassIdentifier: 
  bloomExpanded: 1
  bloomEnabled: 1
  bloomThreshold: 1
  bloomIntensity: 2.5
  bloomTint: {r: 1, g: 1, b: 1, a: 1}
  preserveAspectRatio: 0
  bloomTextureWidth: 128
  bloomTextureHeight: 128
  bloomLumaCalculationType: 0
  bloomLumaVector: {x: 0.33333334, y: 0.33333334, z: 0.33333334}
  colorizeExpanded: 0
  colorizeEnabled: 0
  colorize:
    serializedVersion: 2
    rgba: 0
  vignetteExpanded: 1
  vignetteEnabled: 1
  vignetteBeginRadius: 1
  vignetteExpandRadius: 3
  vignetteColor: {r: 0, g: 0, b: 0, a: 1}
  brightnessContrastExpanded: 0
  brightnessContrastEnabled: 0
  contrast: 0
  brightness: 0
