%YAML 1.1
%TAG !u! tag:unity3d.com,2011:
--- !u!21 &2100000
Material:
  serializedVersion: 6
  m_ObjectHideFlags: 0
  m_CorrespondingSourceObject: {fileID: 0}
  m_PrefabInstance: {fileID: 0}
  m_PrefabAsset: {fileID: 0}
  m_Name: Curved_road_alt
  m_Shader: {fileID: -6465566751694194690, guid: 36f5537f2cb9ae945beb8ef828a5b52a,
    type: 3}
  m_ShaderKeywords: 
  m_LightmapFlags: 4
  m_EnableInstancingVariants: 0
  m_DoubleSidedGI: 0
  m_CustomRenderQueue: -1
  stringTagMap: {}
  disabledShaderPasses: []
  m_SavedProperties:
    serializedVersion: 3
    m_TexEnvs: []
    m_Floats:
    - Vector1_91D1E4F4: 1
    - Vector1_B5605817: 0.01
    m_Colors:
    - Color_381377F1: {r: 0.3207547, g: 0.27839088, b: 0.27839088, a: 1}
    - _Color: {r: 0.32156864, g: 0.2784314, b: 0.2784314, a: 1}
